stepdefination\SqliteConnection.class
stepdefination\TextArea.class
stepdefination\Dropdown.class
stepdefination\AssertionStepDefinition.class
stepdefination\TestNgParallel.class
stepdefination\PageBase.class
stepdefination\Login.class
stepdefination\Context.class
stepdefination\GenericStepDefinition.class
stepdefination\Element.class
cucumberoptions\TestRunner.class
stepdefination\CheckBox.class
stepdefination\MultiSelect.class
stepdefination\CommonSteps.class
dataProvider\ConfigFileReader.class
stepdefination\TextBox.class
stepdefination\FileUpload.class
stepdefination\JavaScriptControls.class
stepdefination\ScenarioContext.class
